scientific_name,english_name,dutch_name
E.coronatus,Crowned lemur,Kroonmaki
E.flavifrons,Blue-eyed black lemur,Blauwoogmaki
E.mongoz,Mongoose lemur,Mongozmaki
E.albifrons,White-headed lemur,Witkopmaki
E.fulvus,Common brown lemur,Bruine maki